id;tmdb_id;character;credit_type;department;job;jhi_order;last_tmdb_update
1;harness Solutions Corporate;Small;cross-platform;ROI Rubber;Forks Strategist withdrawal;78348;2020-09-29
2;extensible;optical online Supervisor;Practical Parkway Passage;program;open-source;47028;2020-09-29
3;Steel Handmade bus;Guatemala Towels GB;Supervisor solution Tools;Kina Unbranded;Tuna;8287;2020-09-29
4;invoice deploy;Wyoming South Dakota;program Lights;Ergonomic Frozen Soap Advanced;Global;88441;2020-09-29
5;Small Frozen;Borders Dynamic Credit Card Account;architectures;Mississippi deposit Interactions;overriding withdrawal feed;15591;2020-09-30
6;Brunei Dollar;Plastic;Fantastic Wooden Table Harbors Business-focused;withdrawal El Salvador;Forward;74817;2020-09-29
7;Tennessee;bypass Factors;deliverables Regional seamless;grid-enabled;Iceland navigating;6109;2020-09-29
8;Checking Account reboot;Gorgeous Plastic Towels solutions;Front-line input structure;Product models;withdrawal Implementation;73368;2020-09-29
9;world-class;Outdoors;Auto Loan Account Rustic Granite Towels;generate Consultant Investment Account;SCSI;74932;2020-09-30
10;Alaska revolutionary;front-end Tasty Wooden Chair Rubber;mesh;SSL;Synchronised asynchronous;60063;2020-09-30
