id;title;for_adult;homepage;original_language;original_title;overview;tagline;status;vote_average;vote_count;release_date;last_tmdb_update;tmdb_id;runtime
1;Checking Account parsing;true;Facilitator quantify deposit;extranet Ball;Tasty Concrete Gloves e-business;Zimbabwe Honduras;Baby User-centric Mobility;CANCELED;6;5046;2020-09-29;2020-09-29;pricing structure GB circuit;74377
2;Soap Designer;true;Future Czech Republic Rubber;real-time;THX;Fully-configurable Bacon;Tanzanian Shilling Small Frozen Shirt;CANCELED;0;70567;2020-09-29;2020-09-30;help-desk Orchestrator system;67035
3;maroon grid-enabled;false;Directives Architect Industrial;Bermudian Dollar (customarily known as Bermuda Dollar) card Rustic Cotton Bacon;SQL even-keeled Wooden;Assimilated Knoll;Taka Refined;IN_PRODUCTION;9;35357;2020-09-30;2020-09-30;Architect Practical;85905
4;Direct;false;compelling;instruction set;Product;Coordinator;embrace;IN_PRODUCTION;5;80381;2020-09-29;2020-09-29;Accounts enterprise migration;92355
5;Fresh Plastic Lake;true;Pizza Buckinghamshire AGP;Administrator;Licensed e-services Implemented;Bedfordshire Berkshire silver;web-enabled;CANCELED;10;69005;2020-09-30;2020-09-29;Buckinghamshire;86212
6;quantifying Lithuania;false;Exclusive PCI;Shirt virtual;exploit;Fresh orange grid-enabled;Belarussian Ruble Unbranded Frozen Chicken haptic;POST_PRODUCTION;10;10422;2020-09-29;2020-09-30;Engineer International;69137
7;back-end Buckinghamshire;true;Awesome Cotton Ball payment;Small Rustic Fresh Bacon;Unbranded card parse;Integration client-driven ubiquitous;Officer;POST_PRODUCTION;3;28856;2020-09-29;2020-09-29;application Unbranded;84730
8;Rustic Cotton Pizza Frozen;true;cyan;out-of-the-box;firmware Synchronised transmitting;Roads innovate;bypass internet solution;CANCELED;10;62829;2020-09-30;2020-09-30;Yuan Renminbi;93320
9;Trinidad and Tobago Dollar Response Multi-layered;false;Configuration Cloned;real-time Frozen;envisioneer Health Cambridgeshire;envisioneer overriding;Ergonomic;POST_PRODUCTION;1;50714;2020-09-30;2020-09-29;Borders;17525
10;Road;true;bypassing Human;parse;Auto Loan Account protocol;Lead;Fantastic Wooden Car;RUMORED;4;7298;2020-09-30;2020-09-29;Industrial AGP;80729
